Pre-processing
…
The column names appear to be cell barcodes but the row names are more complicated.

The CITE-seq antibody data is provided as a CSV file with 96 row and 3413 columns.

print(cite_raw)

# A tibble: 96 x 3,413
   Antibody GCCAAATTCCGAGCCA CGCCAAGAGGGAAACA AAACCTGTCTCCAGGG
   <chr>               <dbl>            <dbl>            <dbl>
 1 CD3                     7               16                9
 2 CD4                     2                5               78
 3 CD8a                    3                5                1
 4 CD14                    1                1                1
 5 CD15                    7                7                8
 6 CD16                    0                1                1
 7 CD19                    4              142                2
 8 CD25                    2                0                0
 9 CD28                    0                0                0
10 CD40                    2              113               10
# … with 86 more rows, and 3,409 more variables: CCGTGGAAGCTGCAAG <dbl>,
#   TTTGCGCAGCGATGAC <dbl>, GCTGCAGCATCACCCT <dbl>,
#   GGAACTTGTCTGCCAG <dbl>, TTGGCAACAAGCGAGT <dbl>,
#   CCCAGTTGTCCGAATT <dbl>, GGATTACCATGTCTCC <dbl>,
#   GTTACAGTCGGTGTTA <dbl>, ACGCAGCGTTTGGGCC <dbl>,
#   TGTATTCGTCTCATCC <dbl>, ACTTACTAGCTGAAAT <dbl>,
#   GCGCAACGTAGCTAAA <dbl>, TTGACTTGTACTTCTT <dbl>,
#   ATTACTCAGGCATGGT <dbl>, AGAATAGAGCCGATTT <dbl>,
#   GAACGGAAGAAGGTTT <dbl>, TCTCTAAAGTGAATTG <dbl>,
…
